\relax 
\catcode`"\active
\select@language{polish}
\@writefile{toc}{\select@language{polish}}
\@writefile{lof}{\select@language{polish}}
\@writefile{lot}{\select@language{polish}}
\@writefile{toc}{\contentsline {section}{\numberline {1}\textbf  {Wst\k ep.}}{1}}
\@writefile{toc}{\contentsline {section}{\numberline {2}Zerowanie cze\'s\'c urojonej - $a+0i$}{1}}
\@writefile{toc}{\contentsline {section}{\numberline {3}Zerowanie cze\'s\'c rzeczywistej - $0+bi$}{3}}
\@writefile{toc}{\contentsline {section}{\numberline {4}Zast\k apienie norm\k a.}{5}}
\@writefile{toc}{\contentsline {section}{\numberline {5}Pozostanie tylko fazy.}{7}}
\@writefile{toc}{\contentsline {section}{\numberline {6}Sprz\k e\.zenie - $ a-bi$}{9}}
\@writefile{toc}{\contentsline {section}{\numberline {7}$ 0.25a+ib$}{11}}
\@writefile{toc}{\contentsline {section}{\numberline {8}$ \left ( a + ib\right )\left (m^2 + n^2 \right )$}{13}}
\@writefile{toc}{\contentsline {section}{\numberline {9}Wyzerujemy gdy nie jest w kwadracie rozmiaru K=50, o \'srodku w (0,0)}{14}}
\@writefile{toc}{\contentsline {section}{\numberline {10}Pomno\.zenie obrazka prze $ \left (-1\right )^{m + n}$}{16}}
